<?xml version="1.0" encoding="utf-8"?>
<!-- Generator: Adobe Illustrator 15.0.2, SVG Export Plug-In . SVG Version: 6.00 Build 0)  -->
<!DOCTYPE svg PUBLIC "-//W3C//DTD SVG 1.1//EN" "http://www.w3.org/Graphics/SVG/1.1/DTD/svg11.dtd">
<svg version="1.1" xmlns="http://www.w3.org/2000/svg" xmlns:xlink="http://www.w3.org/1999/xlink" x="0px" y="0px" width="120px"
	 height="80px" viewBox="0 0 120 80" enable-background="new 0 0 120 80" xml:space="preserve">
<g id="logo-fr" display="none">
	<g display="inline">
		<polygon fill="#FFFFFF" points="120,80.122 19.941,80.122 0,44.771 0,0 120,0 		"/>
		<polygon fill="#EC1C24" points="33.55,22.333 33.55,11.221 22.333,11.221 22.333,22.333 11.118,22.333 11.118,33.55 22.333,33.55 
			22.333,44.771 33.55,44.771 33.55,33.55 44.667,33.55 44.667,22.333 		"/>
		<g>
			<g>
				<defs>
					<rect id="SVGID_1_" x="-0.767" y="5.5" width="125.269" height="74.622"/>
				</defs>
				<clipPath id="SVGID_2_">
					<use xlink:href="#SVGID_1_"  overflow="visible"/>
				</clipPath>
				<path clip-path="url(#SVGID_2_)" fill="#EC1C24" d="M42.7,54.467c0,1.123,0.465,1.494,1.304,1.494
					c0.841,0,1.306-0.278,1.306-1.494v-0.651h1.959v0.468c0,2.613-1.4,3.452-3.266,3.452c-1.958,0-3.264-0.936-3.264-3.452v-3.73
					c0-2.612,1.398-3.452,3.264-3.452c1.959,0,3.266,0.936,3.266,3.452l0,0H45.31v-0.279c0-1.119-0.465-1.494-1.306-1.494
					c-0.839,0-1.304,0.279-1.304,1.494V54.467z"/>
			</g>
			<g>
				<defs>
					<rect id="SVGID_3_" x="-0.767" y="5.5" width="125.269" height="74.622"/>
				</defs>
				<clipPath id="SVGID_4_">
					<use xlink:href="#SVGID_3_"  overflow="visible"/>
				</clipPath>
				<path clip-path="url(#SVGID_4_)" fill="#EC1C24" d="M52.96,57.548l-1.773-4.198h-0.933v4.198h-1.958V47.101h2.89
					c2.425,0,3.545,1.119,3.545,3.076c0,1.311-0.467,2.241-1.586,2.613l1.96,4.666H52.96V57.548z M50.254,51.671h1.026
					c0.839,0,1.4-0.463,1.4-1.397c0-1.027-0.562-1.398-1.4-1.398h-1.026V51.671z"/>
			</g>
			<g>
				<defs>
					<rect id="SVGID_5_" x="-0.767" y="5.5" width="125.269" height="74.622"/>
				</defs>
				<clipPath id="SVGID_6_">
					<use xlink:href="#SVGID_5_"  overflow="visible"/>
				</clipPath>
				<path clip-path="url(#SVGID_6_)" fill="#EC1C24" d="M55.57,50.553c0-2.612,1.4-3.452,3.266-3.452
					c1.957,0,3.265,0.936,3.265,3.452v3.73c0,2.613-1.398,3.452-3.265,3.452c-1.957,0-3.266-0.936-3.266-3.452V50.553z
					 M57.53,54.467c0,1.123,0.467,1.494,1.306,1.494c0.84,0,1.303-0.278,1.303-1.494v-4.193c0-1.119-0.463-1.494-1.303-1.494
					c-0.839,0-1.306,0.279-1.306,1.494V54.467z"/>
			</g>
			<g>
				<defs>
					<rect id="SVGID_7_" x="-0.767" y="5.5" width="125.269" height="74.622"/>
				</defs>
				<clipPath id="SVGID_8_">
					<use xlink:href="#SVGID_7_"  overflow="visible"/>
				</clipPath>
				<rect x="63.218" y="47.197" clip-path="url(#SVGID_8_)" fill="#EC1C24" width="1.962" height="10.442"/>
			</g>
			<g>
				<defs>
					<rect id="SVGID_9_" x="-0.767" y="5.5" width="125.269" height="74.622"/>
				</defs>
				<clipPath id="SVGID_10_">
					<use xlink:href="#SVGID_9_"  overflow="visible"/>
				</clipPath>
				<polygon clip-path="url(#SVGID_10_)" fill="#EC1C24" points="69.75,50.273 71.24,47.197 73.385,47.197 70.868,52.139 
					73.665,57.548 71.523,57.548 69.75,53.907 67.977,57.548 65.831,57.548 68.632,52.139 66.11,47.197 68.256,47.197 				"/>
			</g>
			<g>
				<defs>
					<rect id="SVGID_11_" x="-0.767" y="5.5" width="125.269" height="74.622"/>
				</defs>
				<clipPath id="SVGID_12_">
					<use xlink:href="#SVGID_11_"  overflow="visible"/>
				</clipPath>
				<rect x="73.014" y="51.768" clip-path="url(#SVGID_12_)" fill="#EC1C24" width="3.544" height="1.582"/>
			</g>
			<g>
				<defs>
					<rect id="SVGID_13_" x="-0.767" y="5.5" width="125.269" height="74.622"/>
				</defs>
				<clipPath id="SVGID_14_">
					<use xlink:href="#SVGID_13_"  overflow="visible"/>
				</clipPath>
				<path clip-path="url(#SVGID_14_)" fill="#EC1C24" d="M82.621,57.548l-1.773-4.198h-0.936v4.198h-1.957V47.101h2.893
					c2.429,0,3.547,1.119,3.547,3.076c0,1.311-0.468,2.241-1.59,2.613l1.962,4.666h-2.146V57.548z M79.912,51.671h1.031
					c0.839,0,1.398-0.463,1.398-1.397c0-1.027-0.56-1.398-1.398-1.398h-1.031V51.671z"/>
			</g>
			<g>
				<defs>
					<rect id="SVGID_15_" x="-0.767" y="5.5" width="125.269" height="74.622"/>
				</defs>
				<clipPath id="SVGID_16_">
					<use xlink:href="#SVGID_15_"  overflow="visible"/>
				</clipPath>
				<path clip-path="url(#SVGID_16_)" fill="#EC1C24" d="M85.234,50.553c0-2.612,1.397-3.452,3.263-3.452
					c1.958,0,3.264,0.936,3.264,3.452v3.73c0,2.613-1.397,3.452-3.264,3.452c-1.962,0-3.263-0.936-3.263-3.452V50.553z
					 M87.191,54.467c0,1.123,0.463,1.494,1.306,1.494c0.839,0,1.307-0.278,1.307-1.494v-4.193c0-1.119-0.468-1.494-1.307-1.494
					c-0.843,0-1.306,0.279-1.306,1.494V54.467z"/>
			</g>
			<g>
				<defs>
					<rect id="SVGID_17_" x="-0.767" y="5.5" width="125.269" height="74.622"/>
				</defs>
				<clipPath id="SVGID_18_">
					<use xlink:href="#SVGID_17_"  overflow="visible"/>
				</clipPath>
				<path clip-path="url(#SVGID_18_)" fill="#EC1C24" d="M94.837,47.197v7.27c0,1.031,0.472,1.494,1.402,1.494
					s1.398-0.559,1.398-1.494v-7.27H99.6v7.27c0,2.333-1.403,3.269-3.452,3.269c-2.054,0-3.359-0.936-3.359-3.269v-7.27H94.837z"/>
			</g>
			<g>
				<defs>
					<rect id="SVGID_19_" x="-0.767" y="5.5" width="125.269" height="74.622"/>
				</defs>
				<clipPath id="SVGID_20_">
					<use xlink:href="#SVGID_19_"  overflow="visible"/>
				</clipPath>
				<path clip-path="url(#SVGID_20_)" fill="#EC1C24" d="M105.847,56.708c-0.56,0.56-1.119,1.027-1.865,1.027
					c-1.962,0-3.265-0.936-3.265-3.452v-3.73c0-2.612,1.398-3.452,3.265-3.452c2.048,0,3.167,1.216,3.167,3.548h-1.958
					c0-1.311-0.463-1.773-1.209-1.773c-0.844,0-1.308,0.279-1.308,1.494v4.194c0,1.119,0.464,1.494,1.308,1.494
					c0.746,0,1.209-0.56,1.209-1.397v-0.656h-1.397v-1.678h3.355v5.313h-1.022L105.847,56.708z"/>
			</g>
			<g>
				<defs>
					<rect id="SVGID_21_" x="-0.767" y="5.5" width="125.269" height="74.622"/>
				</defs>
				<clipPath id="SVGID_22_">
					<use xlink:href="#SVGID_21_"  overflow="visible"/>
				</clipPath>
				<polygon clip-path="url(#SVGID_22_)" fill="#EC1C24" points="108.459,57.548 108.459,47.197 113.868,47.197 113.868,48.967 
					110.416,48.967 110.416,51.3 113.029,51.3 113.029,53.069 110.416,53.069 110.416,55.869 114.052,55.869 114.052,57.548 				"/>
			</g>
			<g>
				<defs>
					<rect id="SVGID_23_" x="-0.767" y="5.5" width="125.269" height="74.622"/>
				</defs>
				<clipPath id="SVGID_24_">
					<use xlink:href="#SVGID_23_"  overflow="visible"/>
				</clipPath>
				<path clip-path="url(#SVGID_24_)" fill="#EC1C24" d="M42.7,66.596c0,1.118,0.465,1.494,1.304,1.494
					c0.841,0,1.306-0.28,1.306-1.494v-0.656h1.959v0.473c0,2.608-1.4,3.451-3.266,3.451c-1.958,0-3.264-0.935-3.264-3.451v-3.731
					c0-2.612,1.398-3.451,3.264-3.451c1.959,0,3.266,0.931,3.266,3.451l0,0H45.31V62.4c0-1.122-0.465-1.493-1.306-1.493
					c-0.839,0-1.304,0.279-1.304,1.493V66.596z"/>
			</g>
			<g>
				<defs>
					<rect id="SVGID_25_" x="-0.767" y="5.5" width="125.269" height="74.622"/>
				</defs>
				<clipPath id="SVGID_26_">
					<use xlink:href="#SVGID_25_"  overflow="visible"/>
				</clipPath>
				<path clip-path="url(#SVGID_26_)" fill="#EC1C24" d="M47.455,69.672l2.613-10.442h2.519l2.519,10.442h-1.866l-0.467-2.237
					h-2.798l-0.56,2.237H47.455z M50.254,65.757h1.959l-0.933-4.199l0,0L50.254,65.757z"/>
			</g>
			<g>
				<defs>
					<rect id="SVGID_27_" x="-0.767" y="5.5" width="125.269" height="74.622"/>
				</defs>
				<clipPath id="SVGID_28_">
					<use xlink:href="#SVGID_27_"  overflow="visible"/>
				</clipPath>
				<polygon clip-path="url(#SVGID_28_)" fill="#EC1C24" points="55.664,69.672 55.664,59.321 57.81,59.321 60.61,65.477 
					60.61,65.477 60.61,59.321 62.472,59.321 62.472,69.672 60.514,69.672 57.53,62.96 57.53,62.96 57.53,69.672 				"/>
			</g>
			<g>
				<defs>
					<rect id="SVGID_29_" x="-0.767" y="5.5" width="125.269" height="74.622"/>
				</defs>
				<clipPath id="SVGID_30_">
					<use xlink:href="#SVGID_29_"  overflow="visible"/>
				</clipPath>
				<path clip-path="url(#SVGID_30_)" fill="#EC1C24" d="M63.03,69.672l2.612-10.442h2.517l2.521,10.442h-1.865l-0.463-2.237h-2.801
					l-0.56,2.237H63.03z M65.923,65.757h1.957l-0.93-4.199l0,0L65.923,65.757z"/>
			</g>
			<g>
				<defs>
					<rect id="SVGID_31_" x="-0.767" y="5.5" width="125.269" height="74.622"/>
				</defs>
				<clipPath id="SVGID_32_">
					<use xlink:href="#SVGID_31_"  overflow="visible"/>
				</clipPath>
				<path clip-path="url(#SVGID_32_)" fill="#EC1C24" d="M71.332,59.321h2.801c2.24,0,3.542,1.026,3.639,3.639v3.173
					c-0.097,2.607-1.398,3.635-3.639,3.635h-2.801V59.321z M73.293,67.901h0.651c1.118,0,1.773-0.559,1.773-2.049v-2.709
					c0-1.494-0.468-2.054-1.773-2.054h-0.651V67.901z"/>
			</g>
			<g>
				<defs>
					<rect id="SVGID_33_" x="-0.767" y="5.5" width="125.269" height="74.622"/>
				</defs>
				<clipPath id="SVGID_34_">
					<use xlink:href="#SVGID_33_"  overflow="visible"/>
				</clipPath>
				<rect x="78.794" y="59.321" clip-path="url(#SVGID_34_)" fill="#EC1C24" width="1.962" height="10.446"/>
			</g>
			<g>
				<defs>
					<rect id="SVGID_35_" x="-0.767" y="5.5" width="125.269" height="74.622"/>
				</defs>
				<clipPath id="SVGID_36_">
					<use xlink:href="#SVGID_35_"  overflow="visible"/>
				</clipPath>
				<polygon clip-path="url(#SVGID_36_)" fill="#EC1C24" points="82.062,69.672 82.062,59.321 87.567,59.321 87.567,61.09 
					84.019,61.09 84.019,63.424 86.724,63.424 86.724,65.197 84.019,65.197 84.019,67.901 87.654,67.901 87.654,69.672 				"/>
			</g>
			<g>
				<defs>
					<rect id="SVGID_37_" x="-0.767" y="5.5" width="125.269" height="74.622"/>
				</defs>
				<clipPath id="SVGID_38_">
					<use xlink:href="#SVGID_37_"  overflow="visible"/>
				</clipPath>
				<polygon clip-path="url(#SVGID_38_)" fill="#EC1C24" points="88.868,69.672 88.868,59.321 91.014,59.321 93.814,65.477 
					93.814,65.477 93.814,59.321 95.588,59.321 95.588,69.672 93.718,69.672 90.643,62.96 90.643,62.96 90.643,69.672 				"/>
			</g>
			<g>
				<defs>
					<rect id="SVGID_39_" x="-0.767" y="5.5" width="125.269" height="74.622"/>
				</defs>
				<clipPath id="SVGID_40_">
					<use xlink:href="#SVGID_39_"  overflow="visible"/>
				</clipPath>
				<polygon clip-path="url(#SVGID_40_)" fill="#EC1C24" points="96.89,69.672 96.89,59.321 99.127,59.321 101.836,65.477 
					101.928,65.477 101.928,59.321 103.701,59.321 103.701,69.672 101.836,69.672 98.756,62.96 98.756,62.96 98.756,69.672 				"/>
			</g>
			<g>
				<defs>
					<rect id="SVGID_41_" x="-0.767" y="5.5" width="125.269" height="74.622"/>
				</defs>
				<clipPath id="SVGID_42_">
					<use xlink:href="#SVGID_41_"  overflow="visible"/>
				</clipPath>
				<polygon clip-path="url(#SVGID_42_)" fill="#EC1C24" points="105.007,69.672 105.007,59.321 110.508,59.321 110.508,61.09 
					106.965,61.09 106.965,63.424 109.669,63.424 109.669,65.197 106.965,65.197 106.965,67.901 110.6,67.901 110.6,69.672 				"/>
			</g>
		</g>
	</g>
</g>
<g id="logo-en">
	<polygon fill="#FFFFFF" points="0,0.008 0,44.654 22.323,79.992 120,79.992 120,0.008 	"/>
	<g>
		<g>
			<defs>
				<rect id="SVGID_43_" y="0.008" width="120" height="79.984"/>
			</defs>
			<clipPath id="SVGID_44_">
				<use xlink:href="#SVGID_43_"  overflow="visible"/>
			</clipPath>
			<path clip-path="url(#SVGID_44_)" fill="#ED1C24" d="M46.638,47.989c0-1.251,0.556-1.575,1.39-1.575s1.389,0.324,1.389,1.575
				v0.324h2.131v-0.046c0-2.732-1.436-3.752-3.52-3.752s-3.52,0.973-3.52,3.752v3.982c0,2.732,1.436,3.752,3.52,3.752
				s3.52-0.973,3.52-3.752v-0.463h-2.131v0.74c0,1.251-0.556,1.575-1.389,1.575s-1.39-0.324-1.39-1.575V47.989z M53.771,55.863
				l0.603-2.363h2.964l0.556,2.363h2.038l-2.687-11.162h-2.732l-2.779,11.162H53.771z M55.809,47.109L55.809,47.109l1.065,4.539
				h-2.131L55.809,47.109z M62.479,55.863v-7.226h0.045l3.242,7.226h2.038V44.654h-1.944v6.623h-0.047l-2.965-6.623h-2.314v11.162
				h1.945V55.863z M70.49,55.863l0.602-2.363h2.965l0.556,2.363h2.038l-2.687-11.162H71.23l-2.778,11.162H70.49z M72.574,47.109
				L72.574,47.109l1.065,4.539h-2.13L72.574,47.109z M77.299,55.863h2.963c2.455,0,3.799-1.066,3.891-3.845v-3.427
				c-0.092-2.826-1.436-3.845-3.891-3.845h-2.963V55.863z M79.429,46.554h0.741c1.343,0,1.853,0.647,1.853,2.223v2.918
				c0,1.667-0.694,2.224-1.853,2.224h-0.741V46.554z M87.441,44.654h-2.131v11.162h2.131V44.654z M90.127,55.863l0.603-2.363h2.964
				l0.557,2.363h2.037l-2.732-11.209h-2.732l-2.779,11.162h2.084V55.863z M92.165,47.109L92.165,47.109l1.065,4.539H91.1
				L92.165,47.109z M98.834,55.863v-7.226h0.047l3.242,7.226h2.037V44.654h-1.945v6.623h-0.046l-2.964-6.623h-2.316v11.162h1.945
				V55.863z M51.964,68.83l-2.084-5.002c1.204-0.463,1.667-1.436,1.667-2.824c0-2.084-1.205-3.335-3.798-3.335h-3.103V68.83h2.13
				v-4.538h1.019l1.853,4.538H51.964z M46.824,59.429h1.111c0.926,0,1.528,0.464,1.528,1.528c0,1.065-0.556,1.528-1.528,1.528
				h-1.111V59.429z M58.68,68.83v-1.898h-3.844v-2.918h2.825v-1.898h-2.825v-2.547h3.705v-1.899h-5.835V68.83H58.68z M59.745,68.83
				h2.964c2.455,0,3.799-1.064,3.891-3.844v-3.428c-0.092-2.824-1.436-3.844-3.891-3.844h-2.964V68.83z M61.875,59.568h0.742
				c1.343,0,1.852,0.648,1.852,2.223v2.918c0,1.667-0.694,2.223-1.852,2.223h-0.742V59.568z M72.436,60.957
				c0-1.25,0.556-1.574,1.389-1.574c0.834,0,1.391,0.324,1.391,1.574v0.324h2.13v-0.047c0-2.732-1.437-3.751-3.521-3.751
				s-3.52,0.973-3.52,3.751v3.984c0,2.732,1.436,3.751,3.52,3.751s3.521-0.973,3.521-3.751v-0.464h-2.13v0.741
				c0,1.25-0.557,1.574-1.391,1.574c-0.833,0-1.389-0.324-1.389-1.574V60.957z M85.728,68.83l-2.084-5.002
				c1.204-0.463,1.667-1.436,1.667-2.824c0-2.084-1.204-3.335-3.798-3.335H78.41V68.83h2.131v-4.538h1.018l1.854,4.538H85.728z
				 M80.586,59.429h1.112c0.927,0,1.528,0.464,1.528,1.528c0,1.065-0.556,1.528-1.528,1.528h-1.112V59.429z M86.19,65.264
				c0,2.733,1.437,3.752,3.521,3.752s3.52-0.973,3.52-3.752v-3.982c0-2.732-1.436-3.752-3.52-3.752s-3.521,0.973-3.521,3.752V65.264
				z M88.321,60.957c0-1.25,0.556-1.574,1.39-1.574c0.833,0,1.389,0.324,1.389,1.574v4.539c0,1.25-0.556,1.574-1.389,1.574
				c-0.834,0-1.39-0.324-1.39-1.574V60.957z M101.938,60.633c0,3.104,4.771,3.149,4.771,5.279c0,0.834-0.556,1.344-1.297,1.344
				c-0.834,0-1.621-0.463-1.621-1.713v-0.279h-2.038c0,2.548,1.668,3.752,3.52,3.752c2.224,0,3.566-1.25,3.566-3.195
				c0-3.474-4.77-3.613-4.77-5.326c0-0.741,0.416-1.204,1.157-1.204c0.834,0,1.482,0.324,1.482,1.575h2.038
				c-0.094-2.316-1.76-3.336-3.475-3.336C103.096,57.529,101.938,58.734,101.938,60.633 M94.156,60.633
				c0,3.104,4.771,3.149,4.771,5.279c0,0.834-0.557,1.344-1.297,1.344c-0.834,0-1.621-0.463-1.621-1.713v-0.279h-2.038
				c0,2.548,1.667,3.752,3.52,3.752c2.224,0,3.566-1.25,3.566-3.195c0-3.474-4.771-3.613-4.771-5.326
				c0-0.741,0.417-1.204,1.158-1.204c0.834,0,1.482,0.324,1.482,1.575h2.037c-0.093-2.316-1.76-3.336-3.474-3.336
				C95.314,57.529,94.156,58.734,94.156,60.633"/>
		</g>
		<g>
			<defs>
				<rect id="SVGID_45_" y="0.008" width="120" height="79.984"/>
			</defs>
			<clipPath id="SVGID_46_">
				<use xlink:href="#SVGID_45_"  overflow="visible"/>
			</clipPath>
			<polygon clip-path="url(#SVGID_46_)" fill="#ED1C24" points="33.485,22.331 33.485,11.169 22.323,11.169 22.323,22.331 
				11.162,22.331 11.162,33.493 22.323,33.493 22.323,44.654 33.485,44.654 33.485,33.493 44.693,33.493 44.693,22.331 			"/>
		</g>
	</g>
</g>
</svg>
