<?xml version="1.0" encoding="UTF-8"?>
<svg width="20px" height="20px" viewBox="0 0 20 20" version="1.1" xmlns="http://www.w3.org/2000/svg" xmlns:xlink="http://www.w3.org/1999/xlink">
    <!-- Generator: Sketch 47.1 (45422) - http://www.bohemiancoding.com/sketch -->
    <title>Facebook</title>
    <desc>Created with Sketch.</desc>
    <defs></defs>
    <g id="Assets" stroke="none" stroke-width="1" fill="none" fill-rule="evenodd">
        <path d="M20,10 C20,15.5 15.5,20 10,20 C4.5,20 0,15.5 0,10 C0,4.5 4.5,0 10,0 C15.5,0 20,4.5 20,10 Z M11,10.6 C11.6,10.6 12.3,10.6 12.9,10.6 C13.1,9.9 13.1,9.1 13.2,8.4 C12.5,8.3 11.7,8.4 11,8.4 C11.1,7.5 10.8,6.6 11.2,6.2 C11.6,5.8 12.4,6 13.3,6 C13.4,5.4 13.3,4.6 13.3,4 C12.1,3.8 10.9,3.8 10.1,4.2 C8.7,4.9 8.5,6.4 8.6,8.5 C8,8.5 7.3,8.5 6.7,8.5 C6.6,9.2 6.7,10 6.7,10.7 C7.3,10.8 8,10.7 8.7,10.7 C8.7,12.6 8.7,14.6 8.7,16.5 C9.5,16.5 10.3,16.5 11.1,16.5 C11,14.4 11,12.5 11,10.6 Z" id="Facebook" fill="#FFFFFF" fill-rule="nonzero"></path>
    </g>
</svg>