<?xml version="1.0" encoding="UTF-8"?>
<svg width="50px" height="50px" viewBox="0 0 50 50" version="1.1" xmlns="http://www.w3.org/2000/svg" xmlns:xlink="http://www.w3.org/1999/xlink">
    <!-- Generator: Sketch 47.1 (45422) - http://www.bohemiancoding.com/sketch -->
    <title>heart</title>
    <desc>Created with Sketch.</desc>
    <defs></defs>
    <g id="Control---Mobile" stroke="none" stroke-width="1" fill="none" fill-rule="evenodd">
        <g id="heart" fill="#EC1D24">
            <path d="M45,14.6905221 C45,8.78765686 40.2145702,4.00222708 34.3111482,4.00222708 C30.9109598,4.00222708 27.8865904,5.59402972 25.9306608,8.06831128 L25.8716433,8.09503619 C24.0593601,6.28887747 22.0082231,5.23101632 20.1335817,4.60743501 C20.1413765,4.60353762 20.149728,4.59518609 20.1580796,4.58906163 C19.0712664,4.21324254 17.9065056,4 16.6905221,4 C10.7854298,4 6,8.78598655 6,14.6905221 C6,15.7790055 6.16591717,16.8296287 6.46657244,17.8184505 C6.46879952,17.8162234 6.4710266,17.8128828 6.47492398,17.8106557 C7.32232644,20.8533984 9.06501349,22.7625594 9.60897683,23.2319157 L11.9190115,25.4400617 L12.0570902,25.574243 L11.9128871,25.7206733 C11.2180393,26.4294402 11.2341856,27.5685897 11.9435094,28.2612103 C12.6522763,28.953831 13.7891987,28.9399118 14.4840464,28.2311448 L14.6343741,28.0830442 C14.6510771,28.0680115 14.6711208,28.0585464 14.6956187,28.0585464 C14.750182,28.0585464 14.7930532,28.1014176 14.7930532,28.155981 C14.7930532,28.1782517 14.7852585,28.1982954 14.7707825,28.2144417 L14.7724528,28.2166688 L14.6310334,28.3636558 C13.9361857,29.071866 13.952332,30.2115722 14.661099,30.9019658 C15.372093,31.5962568 16.5095721,31.5828943 17.2021928,30.8713435 L17.3419418,30.7332648 C17.360872,30.7132211 17.3870401,30.6993019 17.4154354,30.6993019 C17.4705555,30.6993019 17.5128699,30.7416163 17.5128699,30.7967365 C17.5128699,30.8212343 17.5028481,30.841278 17.4883721,30.8568675 L17.4867018,30.8590946 C17.4844747,30.8613217 17.4822476,30.8635488 17.4805773,30.8657758 L17.3441689,31.0038546 C16.6493212,31.7126215 16.6660242,32.851771 17.3747912,33.5443916 C18.0857853,34.2370123 19.2232644,34.2253201 19.915885,33.5148829 L20.0623153,33.3639985 L20.0639856,33.3684526 C20.0806887,33.3556469 20.1007324,33.3461818 20.1230031,33.3461818 C20.1781233,33.3461818 20.2209945,33.3884963 20.2209945,33.4436164 C20.2209945,33.4658872 20.2120862,33.4837038 20.200394,33.4998501 L20.2020643,33.5020772 L20.1942696,33.5104287 L20.1898154,33.5148829 L20.0578612,33.6507345 C19.3635702,34.3595015 19.3791597,35.4986509 20.0884834,36.1912716 C20.7994775,36.8838922 21.9369566,36.8722001 22.6295773,36.161206 L22.7982783,35.9886076 L22.7498394,36.0515225 L25.1383785,38.3264808 C25.7820035,38.93837 26.6232815,39.2746584 27.5085443,39.2746584 L27.5536426,39.2746584 C28.4901281,39.2629663 29.3614716,38.880466 30.0050966,38.2039916 C30.630905,37.5464474 30.9660799,36.6483789 30.9354576,35.7241424 C30.9722044,35.7263694 31.0128485,35.7285965 31.0590603,35.7263694 C31.9938755,35.7163476 32.862992,35.334404 33.506617,34.6579297 C34.1313118,34.0020558 34.4592488,33.1463018 34.4436593,32.2326438 C34.4837466,32.2348709 34.5371965,32.2348709 34.5839651,32.2348709 C35.5182235,32.2220652 36.389567,31.8429055 37.0354191,31.164204 C37.6634545,30.503876 37.9958456,29.6080346 37.9680072,28.6821277 C38.004754,28.6843548 38.0570902,28.6865819 38.0916099,28.6843548 C39.0264251,28.6715491 39.8955416,28.2923894 40.5413936,27.613688 C41.7256414,26.3709795 41.7885563,24.4657159 40.7685554,23.1411624 C43.2651077,21.1824489 45,18.096835 45,14.6905221 M39.1561523,26.2891344 C38.8794381,26.5797679 38.4774509,26.745685 38.0515225,26.745685 C37.6506489,26.745685 37.2787271,26.6037089 37.0070239,26.3442546 L34.4859737,23.9896784 C34.326181,23.8716433 34.1313118,23.8003769 33.9158422,23.8003769 C33.3807872,23.8003769 32.9465073,24.2357703 32.9465073,24.7713821 C32.9465073,25.0803889 33.0946079,25.3543192 33.3223264,25.5313718 L35.5995118,27.6910788 C36.2069468,28.2701186 36.2308878,29.2322155 35.6540751,29.8396505 C35.3779177,30.1297272 34.9759304,30.2962011 34.5488886,30.2962011 C34.1491284,30.2962011 33.7772067,30.154225 33.5055034,29.8947707 L31.071866,27.5585678 L31.069639,27.5607949 C30.8970406,27.4021157 30.6676517,27.3030108 30.4154354,27.3030108 C29.8814939,27.3030108 29.4466572,27.7372907 29.4466572,28.2734592 C29.4466572,28.5318001 29.5502163,28.7650863 29.7144631,28.9399118 L29.7127928,28.9421388 L32.0751638,31.1887019 C32.6764744,31.7671849 32.6987451,32.7298385 32.1258298,33.3333762 C31.8496724,33.6223393 31.4476851,33.7888132 31.0206433,33.7888132 C30.6208831,33.7888132 30.2489614,33.6462804 29.9767014,33.3862692 L27.5736862,31.1191057 L27.5714592,31.1213328 C27.3966337,30.94261 27.1533256,30.8312562 26.8827359,30.8312562 C26.3471241,30.8312562 25.9145145,31.2660928 25.9145145,31.8017046 C25.9145145,32.0845432 26.0381173,32.3356461 26.2313161,32.5132554 L28.5669622,34.7314232 C29.1743972,35.3099062 29.198895,36.2747869 28.6220823,36.8799949 C28.3459249,37.1706283 27.9433809,37.3371022 27.5168958,37.3371022 C27.1165789,37.3371022 26.7452139,37.1951261 26.4729539,36.935115 L24.0944366,34.6718489 L24.2364127,34.5282025 C24.9312604,33.8172084 24.9151141,32.6797293 24.2041201,31.9848816 C23.4953531,31.2917041 22.357874,31.3067369 21.6624695,32.0149471 L21.581738,32.0984625 L21.5795109,32.0945651 C21.5611375,32.1146088 21.5366397,32.1268577 21.5060174,32.1268577 C21.4536811,32.1268577 21.4091396,32.0845432 21.4091396,32.0294231 C21.4091396,31.9993576 21.4230588,31.9726327 21.4453296,31.9542593 L21.5188231,31.8813225 C22.2136708,31.1703285 22.1969678,30.0334061 21.487644,29.3402287 C20.7794338,28.645381 19.6397276,28.659857 18.9471069,29.3702942 L18.8613645,29.457707 L18.8591374,29.4560367 C18.8429911,29.4682856 18.8229474,29.4783074 18.8006767,29.4783074 C18.7483404,29.4783074 18.7037989,29.4332091 18.7037989,29.3808728 C18.7037989,29.3586021 18.7110369,29.3402287 18.7238426,29.3235256 L18.7216155,29.3212986 L18.7294103,29.3140606 C18.7316373,29.3118335 18.7316373,29.3096064 18.7338644,29.3096064 L18.8051308,29.2361129 C19.4994218,28.5256756 19.4832755,27.3881965 18.7722815,26.6939055 C18.0612874,26.0007281 16.9260354,26.0152041 16.2311876,26.7234143 L16.1376504,26.8130541 C16.1192771,26.8375519 16.0931089,26.8536982 16.0608163,26.8536982 C16.0079233,26.8536982 15.962825,26.8091567 15.962825,26.7562637 C15.962825,26.7256414 15.9778577,26.6989164 15.9995717,26.6810998 L16.0853141,26.59146 C16.7779348,25.8810227 16.7634588,24.7435436 16.0524648,24.0492526 C15.3436978,23.3560752 14.2056619,23.3699944 13.5113709,24.0787614 L13.4178337,24.1722986 L10.917384,21.7492398 C10.8928862,21.726969 9.05666196,20.1140092 8.20369181,16.6058075 C8.20981627,16.6041372 8.21594073,16.5996831 8.22373549,16.5980128 C8.08398647,15.9822262 8.0043685,15.3430554 8.0043685,14.6866247 C8.0043685,9.89896784 11.8984111,6.00492526 16.688295,6.00492526 C17.4015161,6.00492526 18.0896826,6.10013277 18.7539081,6.2649364 L18.7539081,6.26270932 C20.4542807,6.72983854 22.3957343,7.58503576 24.1122532,9.15568119 L15.2746584,17.9080903 C14.9149857,18.2454923 14.6872671,18.7226434 14.6872671,19.2526875 C14.6872671,20.2765857 15.5162962,21.105058 16.5401944,21.105058 C16.5930875,21.105058 16.6415264,21.0928091 16.6921924,21.0889117 C16.6944195,21.0928091 16.6944195,21.0950362 16.6960898,21.0972633 C16.7367339,21.0928091 16.7757077,21.0827873 16.8163519,21.0772196 C16.8653476,21.068868 16.9115594,21.0627436 16.9605551,21.0527217 C18.4309821,20.7615315 21.2059189,17.8089854 23.7308664,16.2266478 C25.1545248,15.346396 26.0035976,15.0707953 27.5681185,15.0707953 C28.8692878,15.0707953 30.0518652,15.5635359 30.9516039,16.3686239 C31.0590603,16.4476851 31.173198,16.5451197 31.2990278,16.6709495 L36.7024712,21.8589233 L36.7002441,21.8633774 L39.0503662,24.1138379 C39.6594715,24.6945479 39.732965,25.6816994 39.1561523,26.2891344"></path>
        </g>
    </g>
</svg>