<?xml version="1.0" encoding="UTF-8"?>
<svg width="20px" height="20px" viewBox="0 0 20 20" version="1.1" xmlns="http://www.w3.org/2000/svg" xmlns:xlink="http://www.w3.org/1999/xlink">
    <!-- Generator: Sketch 47.1 (45422) - http://www.bohemiancoding.com/sketch -->
    <title>Twitter</title>
    <desc>Created with Sketch.</desc>
    <defs></defs>
    <g id="Assets" stroke="none" stroke-width="1" fill="none" fill-rule="evenodd">
        <path d="M20,10 C20,15.5 15.5,20 10,20 C4.5,20 0,15.5 0,10 C0,4.5 4.5,0 10,0 C15.5,0 20,4.5 20,10 Z M7.5,15.5 C12.6,15.5 15.4,11.3 15.4,7.6 C15.4,7.5 15.4,7.4 15.4,7.2 C15.9,6.8 16.4,6.3 16.8,5.8 C16.3,6 15.8,6.2 15.2,6.2 C15.8,5.9 16.2,5.3 16.4,4.7 C15.9,5 15.3,5.2 14.6,5.4 C14.1,4.9 13.4,4.5 12.6,4.5 C11.1,4.5 9.8,5.7 9.8,7.3 C9.8,7.5 9.8,7.7 9.9,7.9 C7.6,7.8 5.6,6.7 4.2,5 C3.9,5.4 3.8,5.9 3.8,6.4 C3.8,7.4 4.3,8.2 5,8.7 C4.5,8.7 4.1,8.6 3.7,8.4 C3.7,8.4 3.7,8.4 3.7,8.4 C3.7,9.7 4.7,10.9 5.9,11.1 C5.7,11.2 5.4,11.2 5.2,11.2 C5,11.2 4.8,11.2 4.7,11.2 C5.1,12.3 6.1,13.1 7.3,13.1 C6.4,13.8 5.2,14.3 3.9,14.3 C3.7,14.3 3.5,14.3 3.2,14.3 C4.5,15 5.9,15.5 7.5,15.5 L7.5,15.5 Z" id="Twitter" fill="#FFFFFF" fill-rule="nonzero"></path>
    </g>
</svg>