{
  "photo_id_1": {
    "id": "photo_id_1",
    "title": "This is a sample title",
    "description": "This is a really long description",
    "sub_description": "this is a sub description",
    "thumbnail": "http://placehold.it/400x285",
    "categories": {
      "category_1": "Category 1",
      "category_2": "Category 2"
    },
    "regions": {
      "region_3": "Region 3",
      "region_4": "Region 4"
    }
  },
  "photo_id_2": {
    "id": "photo_id_2",
    "title": "This is a sample title",
    "description": "This is a really long description",
    "sub_description": "this is a sub description",
    "thumbnail": "http://placehold.it/400x285",
    "categories": {
      "category_3": "Category 3",
      "category_4": "Category 4"
    },
    "regions": {
      "region_1": "Region 1",
      "region_2": "Region 2"
    }
  },
  "photo_id_3": {
    "id": "photo_id_3",
    "title": "This is a sample title",
    "description": "This is a really long description",
    "sub_description": "this is a sub description",
    "thumbnail": "http://placehold.it/400x285",
    "categories": {
      "category_1": "Category 1"
    },
    "regions": {
      "region_1": "Region 1"
    }
  },
  "photo_id_4": {
    "id": "photo_id_4",
    "title": "This is a sample title",
    "description": "This is a really long description",
    "sub_description": "this is a sub description",
    "thumbnail": "http://placehold.it/400x285",
    "categories": {
      "category_4": "Category 4"
    },
    "regions": {
      "region_4": "Region 4"
    }
  },
  "photo_id_5": {
    "id": "photo_id_5",
    "title": "This is a sample title",
    "description": "This is a really long description",
    "sub_description": "this is a sub description",
    "thumbnail": "http://placehold.it/400x285",
    "categories": {
      "category_4": "Category 4"
    },
    "regions": {
      "region_4": "Region 4"
    }
  },
  "photo_id_6": {
    "id": "photo_id_6",
    "title": "This is a sample title",
    "description": "This is a really long description",
    "sub_description": "this is a sub description",
    "thumbnail": "http://placehold.it/400x285",
    "categories": {
      "category_4": "Category 4"
    },
    "regions": {
      "region_4": "Region 4"
    }
  },
  "photo_id_7": {
    "id": "photo_id_7",
    "title": "This is a sample title",
    "description": "This is a really long description",
    "sub_description": "this is a sub description",
    "thumbnail": "http://placehold.it/400x285",
    "categories": {
      "category_4": "Category 4"
    },
    "regions": {
      "region_4": "Region 4"
    }
  },
  "photo_id_8": {
    "id": "photo_id_8",
    "title": "This is a sample title",
    "description": "This is a really long description",
    "sub_description": "this is a sub description",
    "thumbnail": "http://placehold.it/400x285",
    "categories": {
      "category_4": "Category 4"
    },
    "regions": {
      "region_4": "Region 4"
    }
  },
  "photo_id_9": {
    "id": "photo_id_9",
    "title": "This is a sample title",
    "description": "This is a really long description",
    "sub_description": "this is a sub description",
    "thumbnail": "http://placehold.it/400x285",
    "categories": {
      "category_4": "Category 4"
    },
    "regions": {
      "region_4": "Region 4"
    }
  },
  "photo_id_10": {
    "id": "photo_id_10",
    "title": "This is a sample title",
    "description": "This is a really long description",
    "sub_description": "this is a sub description",
    "thumbnail": "http://placehold.it/400x285",
    "categories": {
      "category_4": "Category 4"
    },
    "regions": {
      "region_4": "Region 4"
    }
  },
  "photo_id_11": {
    "id": "photo_id_11",
    "title": "This is a sample title",
    "description": "This is a really long description",
    "sub_description": "this is a sub description",
    "thumbnail": "http://placehold.it/400x285",
    "categories": {
      "category_4": "Category 4"
    },
    "regions": {
      "region_4": "Region 4"
    }
  },
  "photo_id_12": {
    "id": "photo_id_12",
    "title": "This is a sample title",
    "description": "This is a really long description",
    "sub_description": "this is a sub description",
    "thumbnail": "http://placehold.it/400x285",
    "categories": {
      "category_4": "Category 4"
    },
    "regions": {
      "region_4": "Region 4"
    }
  },
  "photo_id_13": {
    "id": "photo_id_13",
    "title": "This is a sample title",
    "description": "This is a really long description",
    "sub_description": "this is a sub description",
    "thumbnail": "http://placehold.it/400x285",
    "categories": {
      "category_4": "Category 4"
    },
    "regions": {
      "region_4": "Region 4"
    }
  },
  "photo_id_14": {
    "id": "photo_id_14",
    "title": "This is a sample title",
    "description": "This is a really long description",
    "sub_description": "this is a sub description",
    "thumbnail": "http://placehold.it/400x285",
    "categories": {
      "category_4": "Category 4"
    },
    "regions": {
      "region_4": "Region 4"
    }
  },
  "photo_id_15": {
    "id": "photo_id_15",
    "title": "This is a sample title",
    "description": "This is a really long description",
    "sub_description": "this is a sub description",
    "thumbnail": "http://placehold.it/400x285",
    "categories": {
      "category_4": "Category 4"
    },
    "regions": {
      "region_4": "Region 4"
    }
  },
  "photo_id_16": {
    "id": "photo_id_16",
    "title": "This is a sample title",
    "description": "This is a really long description",
    "sub_description": "this is a sub description",
    "thumbnail": "http://placehold.it/400x285",
    "categories": {
      "category_4": "Category 4"
    },
    "regions": {
      "region_4": "Region 4"
    }
  },
  "photo_id_17": {
    "id": "photo_id_17",
    "title": "This is a sample title",
    "description": "This is a really long description",
    "sub_description": "this is a sub description",
    "thumbnail": "http://placehold.it/400x285",
    "categories": {
      "category_4": "Category 4"
    },
    "regions": {
      "region_4": "Region 4"
    }
  },
  "photo_id_18": {
    "id": "photo_id_18",
    "title": "This is a sample title",
    "description": "This is a really long description",
    "sub_description": "this is a sub description",
    "thumbnail": "http://placehold.it/400x285",
    "categories": {
      "category_4": "Category 4"
    },
    "regions": {
      "region_4": "Region 4"
    }
  },
  "photo_id_19": {
    "id": "photo_id_19",
    "title": "This is a sample title",
    "description": "This is a really long description",
    "sub_description": "this is a sub description",
    "thumbnail": "http://placehold.it/400x285",
    "categories": {
      "category_4": "Category 4"
    },
    "regions": {
      "region_4": "Region 4"
    }
  },
  "photo_id_20": {
    "id": "photo_id_20",
    "title": "This is a sample title",
    "description": "This is a really long description",
    "sub_description": "this is a sub description",
    "thumbnail": "http://placehold.it/400x285",
    "categories": {
      "category_4": "Category 4"
    },
    "regions": {
      "region_4": "Region 4"
    }
  },
  "photo_id_21": {
    "id": "photo_id_21",
    "title": "This is a sample title",
    "description": "This is a really long description",
    "sub_description": "this is a sub description",
    "thumbnail": "http://placehold.it/400x285",
    "categories": {
      "category_4": "Category 4"
    },
    "regions": {
      "region_4": "Region 4"
    }
  }
}