<?xml version="1.0" encoding="utf-8"?>
<!-- Generator: Adobe Illustrator 15.0.2, SVG Export Plug-In . SVG Version: 6.00 Build 0)  -->
<!DOCTYPE svg PUBLIC "-//W3C//DTD SVG 1.1//EN" "http://www.w3.org/Graphics/SVG/1.1/DTD/svg11.dtd">
<svg version="1.1" xmlns="http://www.w3.org/2000/svg" xmlns:xlink="http://www.w3.org/1999/xlink" x="0px" y="0px" width="36px"
	 height="36px" viewBox="0 0 36 36" enable-background="new 0 0 36 36" xml:space="preserve">
<g id="Layer_1">
	<circle opacity="0.9" fill="#FFFFFF" cx="18" cy="18" r="18"/>
</g>
<g id="Layer_3">
	<line fill="none" stroke="#767779" stroke-width="2" x1="16.045" y1="23.523" x2="21.667" y2="17.116"/>
	<line fill="none" stroke="#767779" stroke-width="2" x1="21.667" y1="17.809" x2="16.045" y2="11.525"/>
</g>
</svg>
