﻿<tr>
<td style="text-align: left">{%(IsProductOption) ? "&nbsp;&nbsp;-&nbsp;" : ""%}{%Localize(SKUName)%}
{%(CartItemText != "") ? (" '" + CartItemText + "'") : ""|(encode)%}
</td>
<td>{%Units%}</td>
<td>{%UnitPrice.Format("{0:F}")|(user)eca|(hash)8cbeb12b487a16b28401b73ff63d29666adc052febafd1694a2a2fd3d8baf0c2%}</td>
{% (ShoppingCart.IsDiscountApplied) ? ("<td>" + UnitTotalDiscount.Format("{0:F}") + "</td>") : "" |(user)eca|(hash)93a2541b7d8ca40f66eedd6e26236a129d43fcca34436ae91c52ebd28edd117e%}
<td>{%TotalTax.Format("{0:F}")|(user)eca|(hash)567cfb06249fb2c38df7304c8765092357eb5f0e8b809c7301ab298cc792674b%}</td>
<td>{%TotalPrice.Format(Currency.CurrencyFormatString)|(user)eca|(hash)401718a9efb186bcc8019627810041101c56e1a6fd82eccec08b08d8d8211e70%}</td>
</tr>
