<?xml version="1.0" encoding="UTF-8"?>
<svg width="5px" height="9px" viewBox="0 0 5 9" version="1.1" xmlns="http://www.w3.org/2000/svg" xmlns:xlink="http://www.w3.org/1999/xlink">
    <!-- Generator: Sketch 45.2 (43514) - http://www.bohemiancoding.com/sketch -->
    <title></title>
    <desc>Created with Sketch.</desc>
    <defs></defs>
    <g id="Breadcrumbs" stroke="none" stroke-width="1" fill="none" fill-rule="evenodd">
        <path d="M4.6484375,4.5 C4.6484375,4.56770867 4.62239609,4.62760391 4.5703125,4.6796875 L0.9296875,8.3203125 C0.877603906,8.37239609 0.817708672,8.3984375 0.75,8.3984375 C0.682291328,8.3984375 0.622396094,8.37239609 0.5703125,8.3203125 L0.1796875,7.9296875 C0.127603906,7.87760391 0.1015625,7.81770867 0.1015625,7.75 C0.1015625,7.68229133 0.127603906,7.62239609 0.1796875,7.5703125 L3.25,4.5 L0.1796875,1.4296875 C0.127603906,1.37760391 0.1015625,1.31770867 0.1015625,1.25 C0.1015625,1.18229133 0.127603906,1.12239609 0.1796875,1.0703125 L0.5703125,0.6796875 C0.622396094,0.627603906 0.682291328,0.6015625 0.75,0.6015625 C0.817708672,0.6015625 0.877603906,0.627603906 0.9296875,0.6796875 L4.5703125,4.3203125 C4.62239609,4.37239609 4.6484375,4.43229133 4.6484375,4.5 Z" id="" fill="#BDBDBD"></path>
    </g>
</svg>