<?xml version="1.0" encoding="utf-8"?>
<!-- Generator: Adobe Illustrator 21.0.0, SVG Export Plug-In . SVG Version: 6.00 Build 0)  -->
<svg version="1.1" xmlns="http://www.w3.org/2000/svg" xmlns:xlink="http://www.w3.org/1999/xlink" x="0px" y="0px"
	 viewBox="0 0 49 51" style="enable-background:new 0 0 49 51;" xml:space="preserve">
<style type="text/css">
	.st0{display:none;}
	.st1{fill:#1B9EDF;}
	.st2{fill:#FFFFFF;}
	.st3{fill:#2C5397;}
	.st4{fill:#F67500;}
	.st5{fill:#B1D8E3;}
	.st6{fill:none;stroke:#313131;stroke-width:2.5;stroke-miterlimit:10;}
	.st7{fill:none;stroke:#313131;stroke-width:4.75;stroke-linecap:round;stroke-linejoin:round;stroke-miterlimit:10;}
</style>
<g id="GUIDES" class="st0">
</g>
<g id="Layer_1">
	<circle class="st1" cx="24.5" cy="25.5" r="23.9"/>
	<path class="st2" d="M12.8,15.5c0,0,4.2,5.5,11.4,5.9c0,0-1-3.3,2-5.8c3-2.5,6.7-0.4,7.4,0.6c0,0,2.1-0.3,3.6-1.3
		c0,0-0.5,1.9-2.3,3.1c0,0,2.1-0.3,3.1-0.8c0,0-1,1.6-2.8,2.9c0,0,0.7,6.9-5.2,12.6c-5.9,5.7-15.7,4.5-19.2,1.5c0,0,4.8,0.5,8.1-2.3
		c0,0-4-0.1-5.1-3.8c0,0,2,0.2,2.3-0.2c0,0-4.3-1-4.3-5.5c0,0,1.3,0.7,2.5,0.7C14.4,22.9,10.3,19.9,12.8,15.5z"/>
</g>
</svg>
