<?xml version="1.0" encoding="utf-8"?>
<!-- Generator: Adobe Illustrator 21.0.0, SVG Export Plug-In . SVG Version: 6.00 Build 0)  -->
<svg version="1.1" xmlns="http://www.w3.org/2000/svg" xmlns:xlink="http://www.w3.org/1999/xlink" x="0px" y="0px"
	 viewBox="0 0 30 30" style="enable-background:new 0 0 30 30;" xml:space="preserve">
<style type="text/css">
	.st0{display:none;}
	.st1{fill:#1B9EDF;}
	.st2{fill:#FFFFFF;}
	.st3{fill:#2C5397;}
	.st4{fill:#F67500;}
	.st5{fill:#B1D8E3;}
	.st6{fill:none;stroke:#313131;stroke-width:2.5;stroke-miterlimit:10;}
	.st7{fill:none;stroke:#313131;stroke-width:4.75;stroke-linecap:round;stroke-linejoin:round;stroke-miterlimit:10;}
</style>
<g id="GUIDES" class="st0">
</g>
<g id="Layer_1">
	<circle class="st6" cx="11.8" cy="11.6" r="9.3"/>
	<line class="st7" x1="19" y1="19.3" x2="26.4" y2="26.7"/>
</g>
</svg>
