<?xml version="1.0" encoding="utf-8"?>
<!-- Generator: Adobe Illustrator 21.0.2, SVG Export Plug-In . SVG Version: 6.00 Build 0)  -->
<svg version="1.1" id="Layer_1" xmlns="http://www.w3.org/2000/svg" xmlns:xlink="http://www.w3.org/1999/xlink" x="0px" y="0px"
	 viewBox="0 0 2188.7 670.8" style="enable-background:new 0 0 2188.7 670.8;" xml:space="preserve">
<style type="text/css">
	.st0{fill:#E0E0E0;}
	.st1{fill:#2B2B2B;}
</style>
<path id="XMLID_19_" class="st0" d="M2066.8,670.8H122c-67.8,0-122-54.2-122-122V121.9c0-67.8,54.2-122,122-122h1944.8
	c67.8,0,122,54.2,122,122v426.9C2188.7,616.6,2134.5,670.8,2066.8,670.8z"/>
<path id="XMLID_7_" class="st1" d="M789.4,169.4c-20.3,10.2-40.7,13.6-64.4,16.9c23.7-13.6,40.7-33.9,47.4-61
	c-20.3,13.6-44,20.3-71.2,27.1c-20.3-20.3-47.4-33.9-81.3-33.9c-61,0-111.8,50.8-111.8,111.8c0,10.2,0,16.9,3.4,23.7
	c-91.5-3.4-172.8-47.4-227-115.2c-10.2,16.9-13.6,33.9-13.6,54.2c0,37.3,20.3,71.2,47.4,91.5c-16.9,0-33.9-6.8-50.8-13.6l0,0
	c0,54.2,37.3,98.3,88.1,108.4c-10.2,3.4-20.3,3.4-30.5,3.4c-6.8,0-13.6,0-20.3-3.4c13.6,44,54.2,74.5,101.6,77.9
	c-37.3,30.5-84.7,47.4-135.5,47.4c-10.2,0-16.9,0-27.1,0c47.4,30.5,108.4,50.8,169.4,50.8c203.3,0,315.1-169.4,315.1-315.1
	c0-3.4,0-10.2,0-13.6C755.6,210,775.9,189.7,789.4,169.4z"/>
<g>
	<path class="st1" d="M989.3,474.3h-44V233.7H864V193h210v40.7h-81.3v240.6H989.3z"/>
	<path class="st1" d="M1257,474.3l-27.1-98.3c-3.4-10.2-10.2-33.9-16.9-71.2l0,0c-6.8,33.9-13.6,57.6-16.9,74.5l-27.1,98.3h-50.8
		l-57.6-210.1h44l27.1,105c6.8,27.1,10.2,47.4,13.6,64.4l0,0c0-10.2,3.4-20.3,6.8-30.5c3.4-13.6,3.4-20.3,6.8-27.1l30.5-111.8h47.4
		l30.5,111.8c3.4,6.8,3.4,16.9,6.8,27.1c3.4,13.6,3.4,23.7,3.4,30.5l0,0c3.4-16.9,6.8-37.3,13.6-64.4l27.1-105h44l-61,210.1h-44
		v-3.3H1257z"/>
	<path class="st1" d="M1487.4,477.7c-33.9,0-57.6-10.2-77.9-27.1c-16.9-20.3-27.1-44-27.1-77.9s10.2-61,27.1-81.3
		s40.7-30.5,71.2-30.5c27.1,0,50.8,6.8,64.4,23.7c16.9,16.9,23.7,40.7,23.7,71.2v23.7h-138.9c0,20.3,6.8,37.3,16.9,47.4
		c10.2,10.2,23.7,16.9,44,16.9c13.6,0,23.7,0,33.9-3.4c10.2-3.4,23.7-6.8,33.9-10.2v37.3c-10.2,6.8-20.3,10.2-33.9,10.2
		C1511.1,477.7,1500.9,477.7,1487.4,477.7z M1477.2,294.7c-13.6,0-27.1,3.4-33.9,13.6c-10.2,10.2-13.6,23.7-16.9,40.7h94.9
		c0-16.9-3.4-30.5-13.6-40.7C1504.3,298.1,1494.2,294.7,1477.2,294.7z"/>
	<path class="st1" d="M1704.2,477.7c-33.9,0-57.6-10.2-77.9-27.1c-16.9-20.3-27.1-44-27.1-77.9s10.2-61,27.1-81.3
		s40.7-30.5,71.2-30.5c27.1,0,50.8,6.8,64.4,23.7c16.9,16.9,23.7,40.7,23.7,71.2v23.7h-138.9c0,20.3,6.8,37.3,16.9,47.4
		c10.2,10.2,23.7,16.9,44,16.9c13.6,0,23.7,0,33.9-3.4s23.7-6.8,33.9-10.2v37.3c-10.2,6.8-20.3,10.2-33.9,10.2
		S1721.2,477.7,1704.2,477.7z M1697.5,294.7c-13.6,0-27.1,3.4-33.9,13.6c-10.2,10.2-13.6,23.7-16.9,40.7h94.9
		c0-16.9-3.4-30.5-13.6-40.7C1721.2,298.1,1711,294.7,1697.5,294.7z"/>
	<path class="st1" d="M1910.9,440.4c10.2,0,20.3,0,33.9-6.8v33.9c-3.4,3.4-10.2,3.4-20.3,6.8c-10.2,3.4-16.9,3.4-23.7,3.4
		c-40.7,0-64.4-23.7-64.4-67.8V298.1h-27.1v-20.3l30.5-16.9l13.6-44h27.1v47.4h61v33.9h-61V410c0,10.2,3.4,20.3,6.8,23.7
		C1894,440.4,1900.7,440.4,1910.9,440.4z"/>
</g>
</svg>
