<?xml version="1.0" encoding="utf-8"?>
<!-- Generator: Adobe Illustrator 21.0.2, SVG Export Plug-In . SVG Version: 6.00 Build 0)  -->
<svg version="1.1" id="Layer_1" xmlns="http://www.w3.org/2000/svg" xmlns:xlink="http://www.w3.org/1999/xlink" x="0px" y="0px"
	 viewBox="0 0 2173 878.9" style="enable-background:new 0 0 2173 878.9;" xml:space="preserve">
<style type="text/css">
	.st0{fill:#E0E0E0;}
	.st1{fill:#2B2B2B;}
</style>
<path id="XMLID_124_" class="st0" d="M2009.6,879H159C70.7,879,0,808.3,0,720V159.1c0-88.3,70.7-159,159-159h1855
	c88.3,0,159,70.7,159,159V720C2168.6,808.3,2097.9,879,2009.6,879z"/>
<path id="XMLID_17_" class="st1" d="M216.4,459.4c79.5,0,150.2,30.9,207.6,83.9c53,57.4,83.9,128.1,83.9,207.6h119.2
	c0-229.7-185.5-415.2-410.8-415.2C216.4,335.7,216.4,459.4,216.4,459.4z M216.4,243c278.3,0,503.5,225.3,503.5,507.9h119.2
	c0-344.5-278.3-627.2-622.8-627.2C216.4,128.1,216.4,243,216.4,243z M384.3,671.4c0,44.2-35.3,83.9-83.9,83.9
	c-44.2,0-83.9-35.3-83.9-83.9c0-44.2,35.3-83.9,83.9-83.9S384.3,627.2,384.3,671.4z"/>
<g>
	<path class="st1" d="M1082.1,477.1v145.7h-57.4V260.6h101.6c48.6,0,79.5,8.8,106,26.5s35.3,44.2,35.3,79.5
		c0,44.2-22.1,79.5-70.7,97.2l101.6,159h-66.3l-88.3-145.7H1082.1z M1082.1,428.5h39.7c26.5,0,48.6-4.4,61.8-13.2
		c13.3-8.8,17.7-26.5,17.7-44.2c0-22.1-8.8-35.3-22.1-44.2s-35.3-13.2-61.8-13.2h-39.7v114.8L1082.1,428.5L1082.1,428.5z"/>
	<path class="st1" d="M1567.9,521.2c0,30.9-13.3,57.4-35.3,75.1c-22.1,17.7-57.4,26.5-97.2,26.5s-75.1-4.4-101.6-17.7v-57.4
		c17.7,8.8,35.3,13.2,53,17.7c17.7,4.4,35.3,8.8,53,8.8c22.1,0,39.7-4.4,53-13.2c13.3-8.8,17.7-22.1,17.7-35.3
		c0-13.2-4.4-26.5-13.3-35.3c-8.8-8.8-30.9-22.1-61.8-35.3c-30.9-13.2-57.4-26.5-70.7-44.2c-13.3-17.7-22.1-39.7-22.1-61.8
		c0-30.9,8.8-53,30.9-70.7s48.6-26.5,88.3-26.5c35.3,0,70.7,8.8,101.6,22.1l-17.7,48.6c-30.9-13.2-61.8-22.1-88.3-22.1
		c-17.7,0-35.3,4.4-44.2,13.2s-13.3,17.7-13.3,30.9c0,8.8,0,17.7,4.4,22.1c4.4,8.8,8.8,13.2,17.7,17.7c8.8,4.4,26.5,13.2,48.6,22.1
		c26.5,13.2,44.2,22.1,57.4,30.9s22.1,22.1,26.5,30.9C1559.1,477.1,1567.9,508,1567.9,521.2z"/>
	<path class="st1" d="M1855,521.2c0,30.9-13.3,57.4-35.3,75.1c-22.1,17.7-57.4,26.5-97.2,26.5c-39.7,0-75.1-4.4-101.6-17.7v-57.4
		c17.7,8.8,35.3,13.2,53,17.7c17.7,4.4,35.3,8.8,53,8.8c22.1,0,39.7-4.4,53-13.2c13.3-8.8,17.7-22.1,17.7-35.3
		c0-13.2-4.4-26.5-13.3-35.3c-8.8-8.8-30.9-22.1-61.8-35.3c-30.9-13.2-57.4-26.5-70.7-44.2c-13.3-17.7-22.1-39.7-22.1-61.8
		c0-30.9,8.8-53,30.9-70.7s48.6-26.5,88.3-26.5c35.3,0,70.7,8.8,101.6,22.1l-17.7,48.6c-30.9-13.2-61.8-22.1-88.3-22.1
		c-17.7,0-35.3,4.4-44.2,13.2c-8.8,8.8-13.3,17.7-13.3,30.9c0,8.8,0,17.7,4.4,22.1c4.4,8.8,8.8,13.2,17.7,17.7
		c8.8,4.4,26.5,13.2,48.6,22.1c26.5,13.2,44.2,22.1,57.4,30.9s22.1,22.1,26.5,30.9C1846.2,477.1,1855,508,1855,521.2z"/>
</g>
</svg>
