<?xml version="1.0" encoding="utf-8"?>
<!-- Generator: Adobe Illustrator 21.0.2, SVG Export Plug-In . SVG Version: 6.00 Build 0)  -->
<svg version="1.1" id="Layer_1" xmlns="http://www.w3.org/2000/svg" xmlns:xlink="http://www.w3.org/1999/xlink" x="0px" y="0px"
	 viewBox="0 0 2175.9 766.4" style="enable-background:new 0 0 2175.9 766.4;" xml:space="preserve">
<style type="text/css">
	.st0{fill:#E0E0E0;}
	.st1{fill:#2B2B2B;}
</style>
<path id="XMLID_125_" class="st0" d="M2037.3,766.4H138.6C61.6,766.4,0,704.8,0,627.8V138.7C0,61.7,61.6,0.1,138.6,0.1h1898.6
	c77,0,138.6,61.6,138.6,138.6V624C2175.9,701,2114.3,766.4,2037.3,766.4z"/>
<path id="XMLID_17_" class="st1" d="M704.8,165.6H319.7c-38.5,0-73.2,30.8-73.2,73.2v292.7c0,38.5,30.8,73.2,73.2,73.2h385.1
	c38.5,0,73.2-30.8,73.2-73.2V238.8C777.9,200.3,743.3,165.6,704.8,165.6z M704.8,211.8c3.9,0,3.9,0,7.7,0L512.2,373.6L311.9,211.8
	c3.9,0,3.9,0,7.7,0H704.8z M704.8,554.6H319.7c-11.6,0-23.1-11.6-23.1-23.1V265.8l204.1,161.8c3.9,3.9,11.6,3.9,15.4,3.9
	c3.9,0,11.6,0,15.4-3.9l204.1-161.8v265.7C727.9,539.2,716.3,554.6,704.8,554.6z"/>
<g>
	<path class="st1" d="M1113.8,460.9c0,28.1-10.2,50.1-30.5,66.1c-20.3,16-48.3,24-84.1,24c-35.7,0-65-5.5-87.7-16.6v-48.8
		c14.4,6.8,29.7,12.1,45.9,16c16.2,3.9,31.3,5.8,45.3,5.8c20.5,0,35.5-3.9,45.3-11.7s14.6-18.2,14.6-31.3c0-11.8-4.5-21.8-13.4-30
		c-8.9-8.2-27.4-17.9-55.3-29.2c-28.8-11.7-49.1-25-60.9-40c-11.8-15-17.7-33-17.7-54c0-26.4,9.4-47.1,28.1-62.2
		c18.7-15.1,43.9-22.7,75.4-22.7c30.3,0,60.4,6.6,90.3,19.9l-16.4,42.1c-28.1-11.8-53.2-17.7-75.2-17.7c-16.7,0-29.4,3.6-38,10.9
		c-8.6,7.3-13,16.9-13,28.8c0,8.2,1.7,15.2,5.2,21.1c3.5,5.8,9.1,11.3,17.1,16.5c7.9,5.2,22.2,12,42.8,20.5
		c23.2,9.7,40.2,18.7,51,27c10.8,8.4,18.7,17.8,23.8,28.3C1111.3,434.3,1113.8,446.7,1113.8,460.9z"/>
	<path class="st1" d="M1274,551c-37.2,0-66.2-10.8-87.2-32.5c-21-21.7-31.4-51.5-31.4-89.6c0-39,9.7-69.7,29.2-92.1
		c19.4-22.3,46.2-33.5,80.2-33.5c31.5,0,56.5,9.6,74.8,28.7c18.3,19.2,27.4,45.5,27.4,79.1v27.4h-159.3c0.7,23.2,7,41,18.8,53.5
		c11.8,12.5,28.4,18.7,49.9,18.7c14.1,0,27.3-1.3,39.4-4c12.2-2.7,25.2-7.1,39.2-13.3v41.3c-12.4,5.9-24.9,10.1-37.6,12.5
		C1304.7,549.8,1290.2,551,1274,551z M1264.7,341.9c-16.1,0-29.1,5.1-38.8,15.3c-9.7,10.2-15.5,25.1-17.4,44.7H1317
		c-0.3-19.7-5-34.7-14.3-44.8C1293.5,346.9,1280.8,341.9,1264.7,341.9z"/>
	<path class="st1" d="M1634.8,546.7h-51V399.8c0-18.4-3.7-32.2-11.1-41.3c-7.4-9.1-19.2-13.6-35.3-13.6c-21.5,0-37.2,6.3-47.1,19
		c-9.9,12.7-14.9,33.9-14.9,63.7v119.1h-50.8v-239h39.8l7.1,31.3h2.6c7.2-11.4,17.4-20.2,30.7-26.4c13.3-6.2,27.9-9.3,44.1-9.3
		c57.3,0,86,29.2,86,87.5V546.7z"/>
	<path class="st1" d="M1786.1,551c-29.8,0-53.1-10.8-69.8-32.4c-16.7-21.6-25.1-51.9-25.1-91c0-39.2,8.5-69.7,25.4-91.5
		c16.9-21.8,40.4-32.7,70.3-32.7c31.4,0,55.3,11.6,71.7,34.8h2.6c-2.5-17.1-3.7-30.7-3.7-40.6v-87.1h51v336.2h-39.8l-8.9-31.3h-2.4
		C1841.3,539.2,1817.5,551,1786.1,551z M1799.7,510c20.9,0,36.1-5.9,45.6-17.6c9.5-11.7,14.4-30.8,14.7-57.2v-7.1
		c0-30.1-4.9-51.5-14.7-64.2c-9.8-12.7-25.1-19-46-19c-17.9,0-31.6,7.2-41.3,21.7c-9.7,14.5-14.5,35.1-14.5,61.9
		c0,26.5,4.7,46.7,14,60.6C1766.9,503,1781,510,1799.7,510z"/>
</g>
</svg>
